{
    "authenticationMethod": "route",
    "routes": [
        {
            "source": "^(.*)$",
            "authenticationType": "none",
            "target": "$1",
            "destination": "capire"
        }

    ]
}